03-01 04:54:19.208: I/Lab-Notifications(3354): In ensureData(), mIsFresh:false
03-01 04:54:19.718: I/Lab-Notifications(3354): Issuing Toast Message
03-01 04:54:20.248: I/Lab-Notifications(3354): Entered doInBackground()
03-01 04:54:36.308: I/Lab-Notifications(3354): Tweet Download Completed:true
03-01 04:54:36.818: I/Lab-Notifications(3354): Entered notify()
03-01 04:54:37.358: I/Lab-Notifications(3354): BroadcastIntent received in MainActivity
03-01 04:54:37.918: I/Lab-Notifications(3354): Entered result receiver's onReceive() method
